dplyr R - Hexo
…
starwars %>% arrange(height, mass)

## # A tibble: 87 × 14
##    name     height  mass hair_color skin_color eye_color birth_year sex   gender
##    <chr>     <int> <dbl> <chr>      <chr>      <chr>          <dbl> <chr> <chr> 
##  1 Yoda         66    17 white      green      brown            896 male  mascu…
##  2 Ratts T…     79    15 none       grey, blue unknown           NA male  mascu…
##  3 Wicket …     88    20 brown      brown      brown              8 male  mascu…
##  4 Dud Bolt     94    45 none       blue, grey yellow            NA male  mascu…
##  5 R2-D2        96    32 <NA>       white, bl… red               33 none  mascu…
##  6 R4-P17       96    NA none       silver, r… red, blue         NA none  femin…
##  7 R5-D4        97    32 <NA>       white, red red               NA none  mascu…
##  8 Sebulba     112    40 none       grey, red  orange            NA male  mascu…
##  9 Gasgano     122    NA none       white, bl… black             NA male  mascu…
## 10 Watto       137    NA black      blue, grey yellow            NA male  mascu…
## # ℹ 77 more rows
## # ℹ 5 more variables: homeworld <chr>, species <chr>, films <list>,
## #   vehicles <list>, starships <list>

# desc(): order a column in descending order
starwars %>% arrange(desc(height), mass)

## # A tibble: 87 × 14
##    name     height  mass hair_color skin_color eye_color birth_year sex   gender
##    <chr>     <int> <dbl> <chr>      <chr>      <chr>          <dbl> <chr> <chr> 
##  1 Yarael …    264    NA none       white      yellow          NA   male  mascu…
##  2 Tarfful     234   136 brown      brown      blue            NA   male  mascu…
##  3 Lama Su     229    88 none       grey       black           NA   male  mascu…
##  4 Chewbac…    228   112 brown      unknown    blue           200   male  mascu…
##  5 Roos Ta…    224    82 none       grey       orange          NA   male  mascu…
##  6 Grievous    216   159 none       brown, wh… green, y…       NA   male  mascu…
##  7 Taun We     213    NA none       grey       black           NA   fema… femin…
##  8 Tion Me…    206    80 none       grey       black           NA   male  mascu…
##  9 Rugor N…    206    NA none       green      orange          NA   male  mascu…
## 10 Darth V…    202   136 none       white      yellow          41.9 male  mascu…
## # ℹ 77 more rows
## # ℹ 5 more variables: homeworld <chr>, species <chr>, films <list>,
## #   vehicles <list>, starships <list>
…
starwars %>% select(hair_color, skin_color, eye_color)

## # A tibble: 87 × 3
##    hair_color    skin_color  eye_color
##    <chr>         <chr>       <chr>    
##  1 blond         fair        blue     
##  2 <NA>          gold        yellow   
##  3 <NA>          white, blue red      
##  4 none          white       yellow   
##  5 brown         light       brown    
##  6 brown, grey   light       blue     
##  7 brown         light       blue     
##  8 <NA>          white, red  red      
##  9 black         light       brown    
## 10 auburn, white fair        blue-gray
## # ℹ 77 more rows

starwars %>% select(hair_color:eye_color)

## # A tibble: 87 × 3
##    hair_color    skin_color  eye_color
##    <chr>         <chr>       <chr>    
##  1 blond         fair        blue     
##  2 <NA>          gold        yellow   
##  3 <NA>          white, blue red      
##  4 none          white       yellow   
##  5 brown         light       brown    
##  6 brown, grey   light       blue     
##  7 brown         light       blue     
##  8 <NA>          white, red  red      
##  9 black         light       brown    
## 10 auburn, white fair        blue-gray
## # ℹ 77 more rows

# select all cols except those from hair_color to eye_color
starwars %>% select(!(hair_color:eye_color))

## # A tibble: 87 × 11
##    name    height  mass birth_year sex   gender homeworld species films vehicles
##    <chr>    <int> <dbl>      <dbl> <chr> <chr>  <chr>     <chr>   <lis> <list>  
##  1 Luke S…    172    77       19   male  mascu… Tatooine  Human   <chr> <chr>   
##  2 C-3PO      167    75      112   none  mascu… Tatooine  Droid   <chr> <chr>   
##  3 R2-D2       96    32       33   none  mascu… Naboo     Droid   <chr> <chr>   
##  4 Darth …    202   136       41.9 male  mascu… Tatooine  Human   <chr> <chr>   
##  5 Leia O…    150    49       19   fema… femin… Alderaan  Human   <chr> <chr>   
##  6 Owen L…    178   120       52   male  mascu… Tatooine  Human   <chr> <chr>   
##  7 Beru W…    165    75       47   fema… femin… Tatooine  Human   <chr> <chr>   
##  8 R5-D4       97    32       NA   none  mascu… Tatooine  Droid   <chr> <chr>   
##  9 Biggs …    183    84       24   male  mascu… Tatooine  Human   <chr> <chr>   
## 10 Obi-Wa…    182    77       57   male  mascu… Stewjon   Human   <chr> <chr>   
## # ℹ 77 more rows
## # ℹ 1 more variable: starships <list>

# select all cols ending with color
starwars %>% select(ends_with("color"))

## # A tibble: 87 × 3
##    hair_color    skin_color  eye_color
##    <chr>         <chr>       <chr>    
##  1 blond         fair        blue     
##  2 <NA>          gold        yellow   
##  3 <NA>          white, blue red      
##  4 none          white       yellow   
##  5 brown         light       brown    
##  6 brown, grey   light       blue     
##  7 brown         light       blue     
##  8 <NA>          white, red  red      
##  9 black         light       brown    
## 10 auburn, white fair        blue-gray
## # ℹ 77 more rows
if (!require(dplyr)) {
  install.packages("dplyr")
  library(dplyr)
}

# print(iris)
iris <-  as_tibble(iris) # for better printing
# print(iris)
print(names(iris))

## [1] "Sepal.Length" "Sepal.Width"  "Petal.Length" "Petal.Width"  "Species"

iris %>% select(starts_with(("Sepal")))

## # A tibble: 150 × 2
##    Sepal.Length Sepal.Width
##           <dbl>       <dbl>
##  1          5.1         3.5
##  2          4.9         3  
##  3          4.7         3.2
##  4          4.6         3.1
##  5          5           3.6
##  6          5.4         3.9
##  7          4.6         3.4
##  8          5           3.4
##  9          4.4         2.9
## 10          4.9         3.1
## # ℹ 140 more rows

iris %>% select(ends_with("Width"))

## # A tibble: 150 × 2
##    Sepal.Width Petal.Width
##          <dbl>       <dbl>
##  1         3.5         0.2
##  2         3           0.2
##  3         3.2         0.2
##  4         3.1         0.2
##  5         3.6         0.2
##  6         3.9         0.4
##  7         3.4         0.3
##  8         3.4         0.2
##  9         2.9         0.2
## 10         3.1         0.1
## # ℹ 140 more rows

# apply multiple preflixes or suffixes
iris %>% select(starts_with(c("Sepal", "Petal")))

## # A tibble: 150 × 4
##    Sepal.Length Sepal.Width Petal.Length Petal.Width
##           <dbl>       <dbl>        <dbl>       <dbl>
##  1          5.1         3.5          1.4         0.2
##  2          4.9         3            1.4         0.2
##  3          4.7         3.2          1.3         0.2
##  4          4.6         3.1          1.5         0.2
##  5          5           3.6          1.4         0.2
##  6          5.4         3.9          1.7         0.4
##  7          4.6         3.4          1.4         0.3
##  8          5           3.4          1.5         0.2
##  9          4.4         2.9          1.4         0.2
## 10          4.9         3.1          1.5         0.1
## # ℹ 140 more rows

iris %>% select(ends_with(c("Width", "Length")))

## # A tibble: 150 × 4
##    Sepal.Width Petal.Width Sepal.Length Petal.Length
##          <dbl>       <dbl>        <dbl>        <dbl>
##  1         3.5         0.2          5.1          1.4
##  2         3           0.2          4.9          1.4
##  3         3.2         0.2          4.7          1.3
##  4         3.1         0.2          4.6          1.5
##  5         3.6         0.2          5            1.4
##  6         3.9         0.4          5.4          1.7
##  7         3.4         0.3          4.6          1.4
##  8         3.4         0.2          5            1.5
##  9         2.9         0.2          4.4          1.4
## 10         3.1         0.1          4.9          1.5
## # ℹ 140 more rows

# contains(): select cols whose names contain a word
iris %>% select(contains("al"))

## # A tibble: 150 × 4
##    Sepal.Length Sepal.Width Petal.Length Petal.Width
##           <dbl>       <dbl>        <dbl>       <dbl>
##  1          5.1         3.5          1.4         0.2
##  2          4.9         3            1.4         0.2
##  3          4.7         3.2          1.3         0.2
##  4          4.6         3.1          1.5         0.2
##  5          5           3.6          1.4         0.2
##  6          5.4         3.9          1.7         0.4
##  7          4.6         3.4          1.4         0.3
##  8          5           3.4          1.5         0.2
##  9          4.4         2.9          1.4         0.2
## 10          4.9         3.1          1.5         0.1
## # ℹ 140 more rows

# matches(): use regular expression to select
iris %>% select(matches("[pt]al")) # pal/tal

## # A tibble: 150 × 4
##    Sepal.Length Sepal.Width Petal.Length Petal.Width
##           <dbl>       <dbl>        <dbl>       <dbl>
##  1          5.1         3.5          1.4         0.2
##  2          4.9         3            1.4         0.2
##  3          4.7         3.2          1.3         0.2
##  4          4.6         3.1          1.5         0.2
##  5          5           3.6          1.4         0.2
##  6          5.4         3.9          1.7         0.4
##  7          4.6         3.4          1.4         0.3
##  8          5           3.4          1.5         0.2
##  9          4.4         2.9          1.4         0.2
## 10          4.9         3.1          1.5         0.1
## # ℹ 140 more rows

# Rename variables with select
starwars %>% select(home_world = homeworld) # drops all the variables not explicitly mentioned

## # A tibble: 87 × 1
##    home_world
##    <chr>     
##  1 Tatooine  
##  2 Tatooine  
##  3 Naboo     
##  4 Tatooine  
##  5 Alderaan  
##  6 Tatooine  
##  7 Tatooine  
##  8 Tatooine  
##  9 Tatooine  
## 10 Stewjon   
## # ℹ 77 more rows

starwars %>% rename(home_world = homeworld)

## # A tibble: 87 × 14
##    name     height  mass hair_color skin_color eye_color birth_year sex   gender
##    <chr>     <int> <dbl> <chr>      <chr>      <chr>          <dbl> <chr> <chr> 
##  1 Luke Sk…    172    77 blond      fair       blue            19   male  mascu…
##  2 C-3PO       167    75 <NA>       gold       yellow         112   none  mascu…
##  3 R2-D2        96    32 <NA>       white, bl… red             33   none  mascu…
##  4 Darth V…    202   136 none       white      yellow          41.9 male  mascu…
##  5 Leia Or…    150    49 brown      light      brown           19   fema… femin…
##  6 Owen La…    178   120 brown, gr… light      blue            52   male  mascu…
##  7 Beru Wh…    165    75 brown      light      blue            47   fema… femin…
##  8 R5-D4        97    32 <NA>       white, red red             NA   none  mascu…
##  9 Biggs D…    183    84 black      light      brown           24   male  mascu…
## 10 Obi-Wan…    182    77 auburn, w… fair       blue-gray       57   male  mascu…
## # ℹ 77 more rows
## # ℹ 5 more variables: home_world <chr>, species <chr>, films <list>,
## #   vehicles <list>, starships <list>

# Select a range of number-prefix in select by num_rage
library(tidyr)
billboard %>% select(num_range("wk", 10:15))

## # A tibble: 317 × 6
##     wk10  wk11  wk12  wk13  wk14  wk15
##    <dbl> <dbl> <dbl> <dbl> <dbl> <dbl>
##  1    NA    NA    NA    NA    NA    NA
##  2    NA    NA    NA    NA    NA    NA
##  3    51    51    51    47    44    38
##  4    61    61    59    61    66    72
##  5    57    64    70    75    76    78
##  6     6     7    22    29    36    47
##  7    NA    NA    NA    NA    NA    NA
##  8    36    37    37    38    49    61
##  9    10     9     8     6     1     2
## 10    59    66    68    61    67    59
## # ℹ 307 more rows
…
starwars %>% mutate(height_m = height/100)

## # A tibble: 87 × 15
##    name     height  mass hair_color skin_color eye_color birth_year sex   gender
##    <chr>     <int> <dbl> <chr>      <chr>      <chr>          <dbl> <chr> <chr> 
##  1 Luke Sk…    172    77 blond      fair       blue            19   male  mascu…
##  2 C-3PO       167    75 <NA>       gold       yellow         112   none  mascu…
##  3 R2-D2        96    32 <NA>       white, bl… red             33   none  mascu…
##  4 Darth V…    202   136 none       white      yellow          41.9 male  mascu…
##  5 Leia Or…    150    49 brown      light      brown           19   fema… femin…
##  6 Owen La…    178   120 brown, gr… light      blue            52   male  mascu…
##  7 Beru Wh…    165    75 brown      light      blue            47   fema… femin…
##  8 R5-D4        97    32 <NA>       white, red red             NA   none  mascu…
##  9 Biggs D…    183    84 black      light      brown           24   male  mascu…
## 10 Obi-Wan…    182    77 auburn, w… fair       blue-gray       57   male  mascu…
## # ℹ 77 more rows
## # ℹ 6 more variables: homeworld <chr>, species <chr>, films <list>,
## #   vehicles <list>, starships <list>, height_m <dbl>

# see the changed things in the tibble
starwars %>% 
  mutate(height_m = height/100) %>%
  select(height_m, height, everything()) # *** everything() used to show the remaining cols and preserve their original order

## # A tibble: 87 × 15
##    height_m height name    mass hair_color skin_color eye_color birth_year sex  
##       <dbl>  <int> <chr>  <dbl> <chr>      <chr>      <chr>          <dbl> <chr>
##  1     1.72    172 Luke …    77 blond      fair       blue            19   male 
##  2     1.67    167 C-3PO     75 <NA>       gold       yellow         112   none 
##  3     0.96     96 R2-D2     32 <NA>       white, bl… red             33   none 
##  4     2.02    202 Darth…   136 none       white      yellow          41.9 male 
##  5     1.5     150 Leia …    49 brown      light      brown           19   fema…
##  6     1.78    178 Owen …   120 brown, gr… light      blue            52   male 
##  7     1.65    165 Beru …    75 brown      light      blue            47   fema…
##  8     0.97     97 R5-D4     32 <NA>       white, red red             NA   none 
##  9     1.83    183 Biggs…    84 black      light      brown           24   male 
## 10     1.82    182 Obi-W…    77 auburn, w… fair       blue-gray       57   male 
## # ℹ 77 more rows
## # ℹ 6 more variables: gender <chr>, homeworld <chr>, species <chr>,
## #   films <list>, vehicles <list>, starships <list>

# Similarly
starwars %>%
  mutate(
    height_m = height / 100,
    BMI = mass / (height_m^2)
  ) %>%
  select(BMI, everything())

## # A tibble: 87 × 16
##      BMI name      height  mass hair_color skin_color eye_color birth_year sex  
##    <dbl> <chr>      <int> <dbl> <chr>      <chr>      <chr>          <dbl> <chr>
##  1  26.0 Luke Sky…    172    77 blond      fair       blue            19   male 
##  2  26.9 C-3PO        167    75 <NA>       gold       yellow         112   none 
##  3  34.7 R2-D2         96    32 <NA>       white, bl… red             33   none 
##  4  33.3 Darth Va…    202   136 none       white      yellow          41.9 male 
##  5  21.8 Leia Org…    150    49 brown      light      brown           19   fema…
##  6  37.9 Owen Lars    178   120 brown, gr… light      blue            52   male 
##  7  27.5 Beru Whi…    165    75 brown      light      blue            47   fema…
##  8  34.0 R5-D4         97    32 <NA>       white, red red             NA   none 
##  9  25.1 Biggs Da…    183    84 black      light      brown           24   male 
## 10  23.2 Obi-Wan …    182    77 auburn, w… fair       blue-gray       57   male 
## # ℹ 77 more rows
## # ℹ 7 more variables: gender <chr>, homeworld <chr>, species <chr>,
## #   films <list>, vehicles <list>, starships <list>, height_m <dbl>

# Only want to keep the new variable, use.keep = "none"
starwars %>%
  mutate(
    height_m = height / 100,
    BMI = mass / (height_m^2),
    .keep = "none"
  )

## # A tibble: 87 × 2
##    height_m   BMI
##       <dbl> <dbl>
##  1     1.72  26.0
##  2     1.67  26.9
##  3     0.96  34.7
##  4     2.02  33.3
##  5     1.5   21.8
##  6     1.78  37.9
##  7     1.65  27.5
##  8     0.97  34.0
##  9     1.83  25.1
## 10     1.82  23.2
## # ℹ 77 more rows
…
starwars %>% relocate(sex:homeworld, .before = height)

## # A tibble: 87 × 14
##    name      sex   gender homeworld height  mass hair_color skin_color eye_color
##    <chr>     <chr> <chr>  <chr>      <int> <dbl> <chr>      <chr>      <chr>    
##  1 Luke Sky… male  mascu… Tatooine     172    77 blond      fair       blue     
##  2 C-3PO     none  mascu… Tatooine     167    75 <NA>       gold       yellow   
##  3 R2-D2     none  mascu… Naboo         96    32 <NA>       white, bl… red      
##  4 Darth Va… male  mascu… Tatooine     202   136 none       white      yellow   
##  5 Leia Org… fema… femin… Alderaan     150    49 brown      light      brown    
##  6 Owen Lars male  mascu… Tatooine     178   120 brown, gr… light      blue     
##  7 Beru Whi… fema… femin… Tatooine     165    75 brown      light      blue     
##  8 R5-D4     none  mascu… Tatooine      97    32 <NA>       white, red red      
##  9 Biggs Da… male  mascu… Tatooine     183    84 black      light      brown    
## 10 Obi-Wan … male  mascu… Stewjon      182    77 auburn, w… fair       blue-gray
## # ℹ 77 more rows
## # ℹ 5 more variables: birth_year <dbl>, species <chr>, films <list>,
## #   vehicles <list>, starships <list>
…
## Adding missing grouping variables: `species`, `sex`

a3 <- summarise(a2,
  count = n(),
  height = mean(height, na.rm = TRUE),
  mass = mean(mass, na.rm = TRUE)
)

## `summarise()` has grouped output by 'species'. You can override using the
## `.groups` argument.

a3

## # A tibble: 41 × 5
## # Groups:   species [38]
##    species   sex    count height  mass
##    <chr>     <chr>  <int>  <dbl> <dbl>
##  1 Aleena    male       1    79   15  
##  2 Besalisk  male       1   198  102  
##  3 Cerean    male       1   198   82  
##  4 Chagrian  male       1   196  NaN  
##  5 Clawdite  female     1   168   55  
##  6 Droid     none       6   131.  69.8
##  7 Dug       male       1   112   40  
##  8 Ewok      male       1    88   20  
##  9 Geonosian male       1   183   80  
## 10 Gungan    male       3   209.  74  
## # ℹ 31 more rows

# A big change
starwars %>%
  group_by(species, sex) %>%
  select(height, mass) %>%
  summarise(
    height = mean(height, na.rm = TRUE),
    mass = mean(mass, na.rm = TRUE)
  )

## Adding missing grouping variables: `species`, `sex`
## `summarise()` has grouped output by 'species'. You can override using the
## `.groups` argument.

## # A tibble: 41 × 4
## # Groups:   species [38]
##    species   sex    height  mass
##    <chr>     <chr>   <dbl> <dbl>
##  1 Aleena    male      79   15  
##  2 Besalisk  male     198  102  
##  3 Cerean    male     198   82  
##  4 Chagrian  male     196  NaN  
##  5 Clawdite  female   168   55  
##  6 Droid     none     131.  69.8
##  7 Dug       male     112   40  
##  8 Ewok      male      88   20  
##  9 Geonosian male     183   80  
## 10 Gungan    male     209.  74  
## # ℹ 31 more rows
…
select(starwars, name)

## # A tibble: 87 × 1
##    name              
##    <chr>             
##  1 Luke Skywalker    
##  2 C-3PO             
##  3 R2-D2             
##  4 Darth Vader       
##  5 Leia Organa       
##  6 Owen Lars         
##  7 Beru Whitesun Lars
##  8 R5-D4             
##  9 Biggs Darklighter 
## 10 Obi-Wan Kenobi    
## # ℹ 77 more rows
…
